Tošč 1021 15  37% (1316. mesto) 0 ['Gontarska planina', 'Mala Grmada', 'Polhograjska Grmada']
Pasja ravan 1020 14  94% (130. mesto) 4 ['Bukov vrh']
Golni vrh 962 14  56% (919. mesto) 1 []
Sivka 934 14  75% (523. mesto) 2 []
Mlaka 914 14  44% (1175. mesto) 2 []
Javorč 901 14  58% (886. mesto) 1 []
Polhograjska Grmada 898 14  98% (46. mesto) 17 ['Goljek', 'Kregovnik', 'Kucelj nad Polhovim Gradcem', 'Mala Grmada', 'Planinski dom na Ravneku', 'Sveta Uršula', 'Tošč']
Gontarska planina 894 14  70% (626. mesto) 2 ['Brunarica Osovnik', 'Dom na Govejku', 'Dominov dom', 'Tošč']
Lavrovec 890 14  52% (1003. mesto) 1 ['Koča na Vrhu Svetih Treh Kraljev', 'Vrh Svetih Treh Kraljev']
Sveti Lenart 861 14  68% (676. mesto) 1 []
Sveti Ožbolt 859 14  71% (606. mesto) 2 ['Sveta Jedert']
Osolnik 858 14  94% (133. mesto) 5 ['Brunarica Osovnik', 'Dom na Govejku', 'Dominov dom']
Mala Grmada 853 14  53% (981. mesto) 2 ['Kalvarija', 'Kregovnik', 'Kucelj nad Polhovim Gradcem', 'Planinski dom na Ravneku', 'Polhograjska Grmada', 'Sveta Uršula', 'Tošč']
Bukov vrh 832 14  69% (643. mesto) 2 ['Pasja ravan']
Polhograjska Gora (Sveti Lovrenc) 824 14  89% (236. mesto) 7 ['Kalvarija', 'Veliki hrib']
Veliki hrib 815 14  36% (1333. mesto) 1 ['Polhograjska Gora']
Goljek 809 14  49% (1075. mesto) 4 ['Domačija Pr Lenart', 'Kregovnik', 'Polhograjska Grmada']
Sveti Jakob 806 14  95% (98. mesto) 12 ['Dom na Govejku', 'Jeterbenk', 'Rog', 'Sveta Katarina', 'Sveti Florijan']
Marinčeva planina (Hrib) 805 14  39% (1269. mesto) 2 ['Kugelč', 'Sveta Ana', 'Sveti Andrej']
Rog 798 14  59% (854. mesto) 2 ['Kugelč', 'Marinčeva planina']
Sveti Andrej (Planina nad Horjulom) 798 14  62% (805. mesto) 9 ['Jeterbenk', 'Sveta Katarina', 'Sveta Marjeta pod Jeterbenkom', 'Sveti Florijan', 'Sveti Jakob']
Kožljek 788 14  66% (716. mesto) 4 ['Sveta Ana', 'Sveti Mihael na Samotorici']
Brunarica Osovnik 777 14  77% (476. mesto) 2 ['Dom na Govejku', 'Dominov dom', 'Gontarska planina', 'Hom', 'Osolnik']
Jeterbenk 774 14  84% (338. mesto) 10 ['Rog', 'Sveta Katarina', 'Sveta Marjeta pod Jeterbenkom', 'Sveti Jakob']
Sveta Jedert 750 14  55% (946. mesto) 2 ['Sveti Ožbolt']
Sveta Katarina (Topol) 738 14  94% (123. mesto) 9 ['Jeterbenk', 'Rog', 'Sveta Marjeta pod Jeterbenkom', 'Sveti Florijan', 'Sveti Jakob']
Dom na Govejku 734 14  89% (221. mesto) 2 ['Brunarica Osovnik', 'Dominov dom', 'Gontarska planina', 'Osolnik', 'Sveti Florijan', 'Sveti Jakob']
Koreno 729 14  79% (431. mesto) 7 ['Mali vrh', 'Sveti Martin nad Brišami', 'Visoki hrib']
Hom 715 14  82% (378. mesto) 4 ['Brunarica Osovnik', 'Dominov dom']
Mali vrh 708 14  59% (870. mesto) 2 ['Koreno', 'Sveti Martin nad Brišami']
Kucelj nad Polhovim Gradcem 705 14  2% (2048. mesto) 3 ['Kalvarija', 'Kregovnik', 'Mala Grmada', 'Planinski dom na Ravneku', 'Polhograjska Grmada', 'Sveta Uršula']
Sveta Uršula (Setnica) 700 14  51% (1021. mesto) 2 ['Kalvarija', 'Kregovnik', 'Kucelj nad Polhovim Gradcem', 'Mala Grmada', 'Planinski dom na Ravneku', 'Polhograjska Grmada']
Kregovnik 692 14  30% (1466. mesto) 1 ['Domačija Pr Lenart', 'Goljek', 'Kucelj nad Polhovim Gradcem', 'Mala Grmada', 'Planinski dom na Ravneku', 'Polhograjska Grmada', 'Sveta Uršula']
Sveta Ana (Butajnova) 686 14  48% (1093. mesto) 1 ['Kožljek', 'Kugelč', 'Marinčeva planina']
Sveti Florijan (Tehovec) 685 14  45% (1144. mesto) 3 ['Dom na Govejku', 'Rog', 'Sveta Katarina', 'Sveti Jakob']
Grmada 676 14  92% (163. mesto) 18 ['Šmarna gora']
Dominov dom 670 14  50% (1048. mesto) 1 ['Brunarica Osovnik', 'Dom na Govejku', 'Gontarska planina', 'Hom', 'Osolnik']
Šmarna gora 669 14  98% (39. mesto) 23 ['Grmada']
Kugelč (Šentjošt nad Horjulom) 666 14  45% (1152. mesto) 2 ['Marinčeva planina', 'Sveta Ana', 'Sveti Andrej']
Sveti Mihael na Samotorici 665 14  32% (1435. mesto) 1 ['Kožljek']
Domačija Pr Lenart (Belo) 650 15  37% (1317. mesto) 2 ['Goljek', 'Kregovnik']
Rašica (Vrh Staneta Kosca) 641 15  95% (110. mesto) 8 []
Ključ 623 15  61% (808. mesto) 4 ['Bezenica', 'Partizanski dom na Ključu', 'Strmca']
Vrhe nad Dobrovo 603 15  32% (1432. mesto) 2 ['Sveti Jurij']
Visoki hrib 602 15  33% (1403. mesto) 2 ['Koreno', 'Sveti Martin nad Brišami', 'Sveti Urh']
Toško čelo 590 15  93% (140. mesto) 3 []
Veliki vrh (Rašica) 568 15  53% (991. mesto) 1 []
Sveti Martin nad Brišami 567 15  28% (1510. mesto) 1 ['Koreno', 'Mali vrh', 'Visoki hrib']
Partizanski dom na Ključu 550 15  57% (909. mesto) 4 ['Bezenica', 'Ključ', 'Strmca']
Vrh (Debeli hrib) 540 15  47% (1102. mesto) 2 []
Planinski dom na Ravneku 522 15  44% (1174. mesto) 1 ['Kalvarija', 'Kregovnik', 'Kucelj nad Polhovim Gradcem', 'Mala Grmada', 'Polhograjska Grmada', 'Sveta Uršula']
Smledniški hrib (Stari grad) 517 15  79% (430. mesto) 5 []
Sveta Marjeta pod Jeterbenkom 482 15  52% (1017. mesto) 3 ['Jeterbenk', 'Rog', 'Sveta Katarina']
Bezenica 476 15  23% (1619. mesto) 1 ['Ključ', 'Partizanski dom na Ključu']
Strmca 472 15  31% (1457. mesto) 5 ['Ključ', 'Partizanski dom na Ključu']
Kalvarija 460 15  64% (761. mesto) 1 ['Kucelj nad Polhovim Gradcem', 'Mala Grmada', 'Planinski dom na Ravneku', 'Polhograjska Gora', 'Sveta Uršula']
Gradišče (Zapoški hrib) 451 15  3% (2031. mesto) 1 ['Sveti Tilen nad Repnjami']
Stražni vrh 439 15  5% (1992. mesto) 1 ['Klobuk pri Ljubljani', 'Lovska koča na Klobuku']
Gobavica 433 15  5% (1987. mesto) 1 ['Klobuk pri Ljubljani', 'Stražni vrh']
Lovska koča na Klobuku 433 15  72% (592. mesto) 3 []
Šišenski hrib (Rožnik) 429 15  76% (497. mesto) 2 ['Cankarjev vrh', 'Koseški bajer']
Sveti Urh 420 15  63% (775. mesto) 2 ['Visoki hrib']
Sveti Tilen nad Repnjami 419 15  3% (2032. mesto) 1 ['Gradišče']
Sveti Jurij (Hruševo) 414 15  2% (2055. mesto) 1 ['Vrhe nad Dobrovo']
Slavkov dom na Golem brdu 396 15  73% (563. mesto) 2 []
Straža 395 15  31% (1445. mesto) 0 []
Cankarjev vrh (Rožnik) 394 15  86% (290. mesto) 2 ['Koseški bajer', 'Šišenski hrib']
Sveti križ na Hribcu 380 15  26% (1543. mesto) 1 ['Krancelj']
Ljubljanski grad 376 15  82% (368. mesto) 5 []
Koseški bajer 307 16  69% (641. mesto) 1 ['Cankarjev vrh', 'Šišenski hrib']
